[
  {
    "title": "Dashboard",
    "name": "sidebar.dashboard",
    "is_heading": true,
    "is_active": false,
    "class_name": "",
    "is_icon_class": true,
    "icon": ""
  },
  {
    "title": "Doctor Dashboard",
    "name": "sidebar.dashboard1",
    "is_heading": false,
    "is_active": false,
    "link": "/",
    "class_name": "",
    "is_icon_class": true,
    "icon": "ri-hospital-fill"
  },
  {
    "title": "Hospital Dashboard 1",
    "name": "sidebar.dashboard2",
    "is_heading": false,
    "is_active": false,
    "link": "/",
    "class_name": "",
    "is_icon_class": true,
    "icon": "ri-home-8-fill"
  },
  {
    "title": "Hospital Dashboard 2",
    "name": "sidebar.dashboard3",
    "is_heading": false,
    "is_active": false,
    "link": {
      "name": "dashboard.home-2"
    },
    "class_name": "",
    "is_icon_class": true,
    "icon": "ri-briefcase-4-fill"
  },
  {
    "title": "Patient Dashboard",
    "name": "sidebar.dashboard4",
    "is_heading": false,
    "is_active": false,
    "link": {
      "name": "dashboard.home-3"
    },
    "class_name": "",
    "is_icon_class": true,
    "icon": "ri-group-fill"
  },
  {
    "title": "Covid-19 Dashboard",
    "name": "Covid-19 Dashboard",
    "is_heading": false,
    "is_active": false,
    "link": {
      "name": "dashboard.home-5"
    },
    "class_name": "",
    "is_icon_class": true,
    "icon": "lab la-mendeley"
  },
  {
    "title": "Apps",
    "name": "sidebar.app",
    "is_heading": true,
    "is_active": false,
    "class_name": "",
    "is_icon_class": true,
    "icon": ""
  },
  {
    "title": "Email",
    "name": "sidebar.email",
    "is_heading": false,
    "is_active": false,
    "link": "",
    "class_name": "",
    "is_icon_class": true,
    "icon": "ri-mail-open-line",
    "children": [
      {
        "title": "Inbox",
        "name": "sidebar.inbox",
        "is_active": false,
        "link": {
          "name" : "app.email"
        },
        "class_name": "",
        "is_icon_class": true,
        "icon": "ri-mail-open-fill"
      },
      {
        "title": "Email Compose",
        "name": "sidebar.emailCompose",
        "is_active": false,
        "link": {
          "name" : "app.email.compose"
        },
        "class_name": "",
        "is_icon_class": true,
        "icon": "ri-edit-line"
      }
    ]
  },
  {
    "title": "Doctors",
    "name": "sidebar.doctor",
    "is_heading": false,
    "is_active": false,
    "link": "",
    "class_name": "",
    "is_icon_class": true,
    "icon": "ri-user-3-fill",
    "children": [
      {
        "title": "All Doctors",
        "name": "sidebar.doctorList",
        "is_active": false,
        "link": {
          "name" : "doctor.list"
        },
        "class_name": "",
        "is_icon_class": true,
        "icon": "ri-file-list-fill"
      },
      {
        "title": "Add Doctor",
        "name": "sidebar.doctorAdd",
        "is_active": false,
        "link": {
          "name" : "doctor.add"
        },
        "class_name": "",
        "is_icon_class": true,
        "icon": "ri-user-add-fill"
      },
      {
        "title": "Doctor Profile",
        "name": "sidebar.doctorProfile",
        "is_active": false,
        "link": {
          "name" : "doctor.profile"
        },
        "class_name": "",
        "is_icon_class": true,
        "icon": "ri-profile-fill"
      },
      {
        "title": "Edit Doctor",
        "name": "sidebar.doctorEdit",
        "is_active": false,
        "link": {
          "name" : "doctor.edit"
        },
        "class_name": "",
        "is_icon_class": true,
        "icon": "ri-file-edit-fill"
      }
    ]
  },
  {
    "title": "Calendar",
    "name": "sidebar.calendar",
    "is_heading": false,
    "is_active": false,
    "link": {
      "name" : "app.calendar"
    },
    "class_name": "",
    "is_icon_class": true,
    "icon": "ri-calendar-event-fill"
  },
  {
    "title": "Chat",
    "name": "sidebar.chat",
    "is_heading": false,
    "is_active": false,
    "link": {
      "name" : "app.chat"
    },
    "class_name": "",
    "is_icon_class": true,
    "icon": "ri-message-fill"
  },

  {
    "title": "Components",
    "name": "sidebar.components",
    "is_heading": true,
    "is_active": false,
    "class_name": "",
    "is_icon_class": true,
    "icon": ""
  },
  {
    "title": "UI Elements",
    "name": "sidebar.uiElements",
    "is_heading": false,
    "is_active": false,
    "class_name": "",
    "link": "",
    "is_icon_class": true,
    "icon": "ri-apps-fill",
    "children": [
      {
        "title": "Color",
        "name": "sidebar.color",
        "is_active": false,
        "link": {
          "name": "core.color"
        },
        "class_name": "",
        "is_icon_class": true,
        "icon": "ri-font-color"
      },{
        "title": "Trypography",
        "name": "sidebar.typography",
        "is_active": false,
        "link": {
          "name": "core.typography"
        },
        "class_name": "",
        "is_icon_class": true,
        "icon": "ri-text"
      },
      {
        "title": "Alert",
        "name": "sidebar.alert",
        "is_active": false,
        "link": {
        "name": "core.alert"
        },
        "class_name": "",
        "is_icon_class": true,
        "icon": "ri-alert-line"
      },
      {
        "title": "Badges",
        "name": "sidebar.badges",
        "is_active": false,
        "link": {
        "name": "core.badges"
        },
        "class_name": "",
        "is_icon_class": true,
        "icon": "ri-building-3-line"
      },
      {
        "title": "Breadcrumb",
        "name": "sidebar.breadcrumb",
        "is_active": false,
        "link": {
        "name": "core.breadcrumb"
        },
        "class_name": "",
        "is_icon_class": true,
        "icon": "ri-menu-2-line"
      },
      {
        "title": "Button",
        "name": "sidebar.button",
        "is_active": false,
        "link":{
          "name":"core.button"
        },
        "class_name": "",
        "is_icon_class": true,
        "icon": "ri-checkbox-blank-line"
      },
      {
        "title": "Cards",
        "name": "sidebar.cards",
        "is_active": false,
        "link":{
          "name":"core.cards"
        },
        "class_name": "",
        "is_icon_class": true,
        "icon": "ri-bank-card-line"
      },
      {
        "title": "Carousel",
        "name": "sidebar.carousel",
        "is_active": false,
        "link": {
          "name":"core.carousel"
        },
        "class_name": "",
        "is_icon_class": true,
        "icon": "ri-slideshow-line"
      },
      {
        "title": "Video",
        "name": "sidebar.video",
        "is_active": false,
        "link": {
          "name": "core.embed-video"
        },
        "class_name": "",
        "is_icon_class": true,
        "icon": "ri-slideshow-2-line"
      },
      {
        "title": "Grid",
        "name": "sidebar.grid",
        "is_active": false,
        "link": {
          "name":"core.grid"
        },
        "class_name": "",
        "is_icon_class": true,
        "icon": "ri-grid-line"
      },
      {
        "title": "Images",
        "name": "sidebar.images",
        "is_active": false,
        "link": {
          "name": "core.images"
        },
        "class_name": "",
        "is_icon_class": true,
        "icon": "ri-image-line"
      },
      {
        "title": "List group",
        "name": "sidebar.listGroup",
        "is_active": false,
        "link": {
          "name": "core.listgroup"
        },
        "class_name": "",
        "is_icon_class": true,
        "icon": "ri-file-list-3-line"
      },
      {
        "title": "Media",
        "name": "sidebar.media",
        "is_active": false,
        "link": {
          "name": "core.media-object"
        },
        "class_name": "",
        "is_icon_class": true,
        "icon": "ri-camera-line"
      },
      {
        "title": "Modal",
        "name": "sidebar.modal",
        "is_active": false,
        "link": {
          "name": "core.modal"
        },
        "class_name": "",
        "is_icon_class": true,
        "icon": "ri-stop-mini-line"
      },
      {
        "title": "Notifications",
        "name": "sidebar.notifications",
        "is_active": false,
        "link": {
          "name": "core.notifications"
        },
        "class_name": "",
        "is_icon_class": true,
        "icon": "ri-notification-line"
      },
      {
        "title": "Pagination",
        "name": "sidebar.pagination",
        "is_active": false,
        "link":{
          "name":"core.pagination"
        },
        "class_name": "",
        "is_icon_class": true,
        "icon": "ri-pages-line"
      },
      {
        "title": "Popovers",
        "name": "sidebar.popovers",
        "is_active": false,
        "link": {
          "name": "core.popovers"
        },
        "class_name": "",
        "is_icon_class": true,
        "icon": "ri-folder-shield-2-line"
      },
      {
        "title": "Progress Bars",
        "name": "sidebar.progressBars",
        "is_active": false,
        "link":{
          "name":"core.progressbars"
        },
        "class_name": "",
        "is_icon_class": true,
        "icon": "ri-battery-low-line"
      },
      {
        "title": "Tabs",
        "name": "sidebar.tabs",
        "is_active": false,
        "link":{
          "name":"core.tabs"
        },
        "class_name": "",
        "is_icon_class": true,
        "icon": "ri-database-line"
      },
      {
        "title": "Tooltips",
        "name": "sidebar.tooltips",
        "is_active": false,
        "link": {
          "name": "core.tooltips"
        },
        "class_name": "",
        "is_icon_class": true,
        "icon": "ri-record-mail-line"
      }
    ]
  },
  {
    "title": "Forms",
    "name": "sidebar.forms",
    "is_heading": false,
    "is_active": false,
    "link": "",
    "class_name": "",
    "is_icon_class": true,
    "icon": "ri-device-fill",
    "children": [
      {
        "title": "Form Elements",
        "name": "sidebar.formElements",
        "is_active": false,
        "link": {
          "name": "form.layout"
        },
        "class_name": "",
        "is_icon_class": true,
        "icon": "ri-tablet-line"
      },
      {
        "title": "Form Validation",
        "name": "sidebar.formValidation",
        "is_active": false,
        "link": {
          "name": "form.validate"
        },
        "class_name": "",
        "is_icon_class": true,
        "icon": "ri-device-line"
      },
      {
        "title": "Form Switch",
        "name": "sidebar.formSwitch",
        "is_active": false,
        "link": {
          "name": "form.switch"
        },
        "class_name": "",
        "is_icon_class": true,
        "icon": "ri-toggle-line"
      },
      {
        "title": "Form Radio",
        "name": "sidebar.formRadio",
        "is_active": false,
        "link": {
          "name": "form.radio"
        },
        "class_name": "",
        "is_icon_class": true,
        "icon": "ri-checkbox-line"
      },
      {
        "title": "Form Checkbox",
        "name": "sidebar.formCheckbox",
        "is_active": false,
        "link": {
          "name": "form.checkbox"
        },
        "class_name": "",
        "is_icon_class": true,
        "icon": "ri-radio-button-line"
      }
    ]
  },
  {
    "title": "Tables",
    "name": "sidebar.table",
    "is_heading": false,
    "is_active": false,
    "link": "",
    "class_name": "",
    "is_icon_class": true,
    "icon": "ri-table-fill",
    "children": [
      {
        "title": "Basic Table",
        "name": "sidebar.basicTable",
        "is_active": false,
        "link": {
          "name": "table.basic"
        },
        "class_name": "",
        "is_icon_class": true,
        "icon": "ri-table-line"
      },
      {
        "title": "DataTable",
        "name": "sidebar.dataTable",
        "is_active": false,
        "link": {
          "name": "table.dataTable"
        },
        "class_name": "",
        "is_icon_class": true,
        "icon": "ri-database-line"
      },
      {
        "title": "Editable",
        "name": "sidebar.editable",
        "is_active": false,
        "link": {
          "name": "table.editable"
        },
        "class_name": "",
        "is_icon_class": true,
        "icon": "ri-refund-line"
      }
    ]
  },
  {
    "title": "Charts",
    "name": "sidebar.charts",
    "is_heading": false,
    "is_active": false,
    "link": "",
    "class_name": "",
    "is_icon_class": true,
    "icon": "ri-bar-chart-2-fill",
    "children": [
      {
        "title": "Morris Charts",
        "name": "sidebar.morrisChart",
        "is_active": false,
        "link": {
          "name": "chart.morris"
        },
        "class_name": "",
        "is_icon_class": true,
        "icon": "ri-file-chart-line"
      },
      {
        "title": "High Charts",
        "name": "sidebar.highChart",
        "is_active": false,
        "link": {
          "name": "chart.high"
        },
        "class_name": "",
        "is_icon_class": true,
        "icon": "ri-bar-chart-line"
      },
      {
        "title": "AM Charts",
        "name": "sidebar.amChart",
        "is_active": false,
        "link": {
          "name": "chart.am"
        },
        "class_name": "",
        "is_icon_class": true,
        "icon": "ri-folder-chart-line"
      },
      {
        "title": "Apex Charts",
        "name": "sidebar.apexChart",
        "is_active": false,
        "link": {
          "name": "chart.apex"
        },
        "class_name": "",
        "is_icon_class": true,
        "icon": "ri-folder-chart-2-line"
      }
    ]
  },
  {
    "title": "Icons",
    "name": "sidebar.icons",
    "is_heading": false,
    "is_active": false,
    "link": "",
    "class_name": "",
    "is_icon_class": true,
    "icon": "ri-copper-coin-fill",
    "children": [
      {
        "title": "Dripicons Icon",
        "name": "sidebar.dripicons",
        "is_active": false,
        "link": {
          "name": "icon.dripicons"
        },
        "class_name": "",
        "is_icon_class": true,
        "icon": "ri-stack-line"
      },
      {
        "title": "Font Awesome 5",
        "name": "sidebar.fontAwsome5",
        "is_active": false,
        "link": {
          "name": "icon.fontawesome-5"
        },
        "class_name": "",
        "is_icon_class": true,
        "icon": "ri-facebook-fill"
      },
      {
        "title": "Line Awesome Icon",
        "name": "sidebar.lineAwsomeIcon",
        "is_active": false,
        "link": {
          "name": "icon.lineawesome"
        },
        "class_name": "",
        "is_icon_class": true,
        "icon": "ri-keynote-line"
      },
      {
        "title": "Remixicon",
        "name": "sidebar.rimixIcon",
        "is_active": false,
        "link": {
          "name": "icon.remixicon"
        },
        "class_name": "",
        "is_icon_class": true,
        "icon": "ri-remixicon-line"
      },
      {
        "title": "Unicons",
        "name": "sidebar.unicon",
        "is_active": false,
        "link": {
          "name": "icon.unicons"
        },
        "class_name": "",
        "is_icon_class": true,
        "icon": "ri-underline"
      }
    ]
  },
  {
    "title": "Pages",
    "name": "sidebar.pages",
    "is_heading": true,
    "is_active": false,
    "class_name": "",
    "is_icon_class": true,
    "icon": "ri-archive-line"
  },
  {
    "title": "Authentication",
    "name": "sidebar.authentication",
    "is_heading": false,
    "is_active": false,
    "link": "",
    "class_name": "",
    "is_icon_class": true,
    "icon": "ri-server-fill",
    "children": [
      {
        "title": "Login",
        "name": "sidebar.login",
        "is_active": false,
        "link": "/sign-in",
        "class_name": "",
        "is_icon_class": true,
        "icon": "ri-login-box-line"
      },
      {
        "title": "Register",
        "name": "sidebar.register",
        "is_active": false,
        "link": "/sign-up",
        "class_name": "",
        "is_icon_class": true,
        "icon": "ri-login-circle-line"
      },
      {
        "title": "Recover Password",
        "name": "sidebar.recoverPassword",
        "is_active": false,
        "link": {
          "name": "auth1.password-reset1"
        },
        "class_name": "",
        "is_icon_class": true,
        "icon": "ri-record-mail-line"
      },
      {
        "title": "Confirm Mail",
        "name": "sidebar.confirmMail",
        "is_active": false,
        "link": {
          "name": "auth1.confirm-mail1"
        },
        "class_name": "",
        "is_icon_class": true,
        "icon": "ri-file-code-line"
      },
      {
        "title": "Lock Screen",
        "name": "sidebar.lockScreen",
        "is_active": false,
        "link": {
          "name": "auth1.lock-screen1"
        },
        "class_name": "",
        "is_icon_class": true,
        "icon": "ri-lock-line"
      }
    ]
  },
  {
    "title": "Maps",
    "name": "sidebar.maps",
    "is_heading": false,
    "is_active": false,
    "link": "",
    "class_name": "",
    "is_icon_class": true,
    "icon": "ri-map-pin-2-fill",
    "children": [
      {
        "title": "Google Map",
        "name": "sidebar.googleMap",
        "is_active": false,
        "link": {
          "name": "map.google"
        },
        "class_name": "",
        "is_icon_class": true,
        "icon": "ri-google-line"
      }
    ]
  },
  {
    "title": "Extra Pages",
    "name": "sidebar.extraPages",
    "is_heading": false,
    "is_active": false,
    "link": "",
    "class_name": "",
    "is_icon_class": true,
    "icon": "ri-folders-fill",
    "children": [
      {
        "title": "Timeline",
        "name": "sidebar.timeline",
        "is_active": false,
        "link": {
          "name": "extra-pages.timeline"
        },
        "class_name": "",
        "is_icon_class": true,
        "icon": "ri-map-pin-time-line"
      },
      {
        "title": "Invoice",
        "name": "sidebar.invoice",
        "is_active": false,
        "link": {
          "name": "extra-pages.invoice"
        },
        "class_name": "",
        "is_icon_class": true,
        "icon": "ri-question-answer-line"
      },
      {
        "title": "Blank Page",
        "name": "sidebar.blankPage",
        "is_active": false,
        "link": {
          "name": "extra-pages.blank-page"
        },
        "class_name": "",
        "is_icon_class": true,
        "icon": "ri-invision-line"
      },
      {
        "title": "Error 404",
        "name": "sidebar.error404",
        "is_active": false,
        "link": {
          "name": "default.error",
          "params": { "code" : "404"}
        },
        "class_name": "",
        "is_icon_class": true,
        "icon": "ri-error-warning-line"
      },
      {
        "title": "Error 500",
        "name": "sidebar.error500",
        "is_active": false,
        "link": {
          "name": "default.error",
          "params": { "code" : "500"}
        },
        "class_name": "",
        "is_icon_class": true,
        "icon": "ri-error-warning-line"
      },
      {
        "title": "Pricing",
        "name": "sidebar.pricing",
        "is_active": false,
        "link": {
          "name": "extra-pages.pricing"
        },
        "class_name": "",
        "is_icon_class": true,
        "icon": "ri-price-tag-line"
      },
      {
        "title": "Pricing 1",
        "name": "sidebar.pricing1",
        "is_active": false,
        "link": {
          "name": "extra-pages.pricing1"
        },
        "class_name": "",
        "is_icon_class": true,
        "icon": "ri-price-tag-2-line"
      },
      {
        "title": "Maintenance",
        "name": "sidebar.maintenance",
        "is_active": false,
        "link": {
          "name": "default.maintenance"
        },
        "class_name": "",
        "is_icon_class": true,
        "icon": "ri-archive-line"
      },
      {
        "title": "Coming Soon",
        "name": "sidebar.comingSoon",
        "is_active": false,
        "link": {
          "name": "default.coming-soon"
        },
        "class_name": "",
        "is_icon_class": true,
        "icon": "ri-mastercard-line"
      },
      {
        "title": "FAQ",
        "name": "sidebar.faq",
        "is_active": false,
        "link": {
          "name": "extra-pages.faq"
        },
        "class_name": "",
        "is_icon_class": true,
        "icon": "ri-compasses-line"
      }
    ]
  }
]
